{
   "width":16,
   "height":16,
   "map":[ 4, 4, 4, 4, 4, 4, 4, 4, 4, 4, 4, 4, 4, 4, 4, 4,
           4, 7, 1, 1, 1, 1, 1, 1, 1, 1, 1, 4, 1, 1, 1, 4,
           4, 1,63,63,63,63, 1,63,63,63,63, 4, 1, 1, 1, 4,
           4, 1,63, 8, 1,63, 1,63, 1, 1,63, 5, 1, 1, 1, 4,
           4, 1,63, 1, 1,63, 1,63, 1, 1,63, 4, 1, 1, 1, 4,
           4, 1,63,63,63, 8, 1,63,63,63,63, 4, 1, 1, 1, 4,
           4, 1,63,63, 1, 1, 1,63, 1, 1, 1, 4, 4, 4, 4, 4,
           4, 1,63, 1,63, 1, 1, 8, 1, 1,63,63,63, 1, 1, 4,
           4, 1,63, 1, 1,63, 1,63, 1, 1,63, 1,63,63, 1, 4,
           4, 1, 1, 1, 1, 1, 1, 1, 1, 8,63, 1, 1,63, 1, 4,
           4, 1,14,14,14, 1, 1, 1, 1, 1,63, 1, 1,63, 1, 4,
           4, 1,14, 1,14, 1, 1, 0, 1, 1,63, 1,63,63, 1, 4,
           4, 1,14, 1,14, 1, 1, 1, 1, 1,63,63,63, 1, 1, 4,
           4, 1,14,14,14, 1, 1, 1, 1, 1, 1, 1, 1, 1, 1, 4,
           4, 1, 1, 1, 1, 1, 1, 1, 1, 1, 1, 1, 1, 1, 1, 4,
           4, 4, 4, 4, 4, 4, 4, 4, 4, 4, 4, 4, 4, 4, 4, 4           
         ],
   "baseTileVar":[  2, 2, 2, 3, 3, 3, 3, 3, 4, 4, 4, 4, 4, 4, 4, 4,
                    4, 7, 1, 1, 1, 1, 1, 1, 1, 1, 1, 4, 2, 2, 2, 4,
                    4, 1,63,63,63,63, 1,63,63,63,63, 4, 2, 2, 2, 4,
                    4, 1,63, 0, 0,63, 1,63, 0, 0,63, 5, 2, 2, 2, 4,
                    4, 1,63, 0, 0,63, 1,63, 0, 0,63, 4, 2, 2, 2, 4,
                    4, 1,63,63,63, 8, 1,63,63,63,63, 4, 2, 2, 2, 4,
                    4, 1,63,63, 1, 1, 1,63, 1, 1, 1, 4, 4, 4, 4, 4,
                    4, 1,63, 1,63, 1, 1, 8, 1, 1,63,63,63, 1, 1, 4,
                    4, 1,63, 1, 1,63, 1,63, 1, 1,63, 1,63,63, 1, 4,
                    4, 1, 1, 1, 1, 1, 1, 1, 1, 8,63, 1, 1,63, 1, 4,
                    4, 1,14,14,14, 1, 2, 2, 2, 1,63, 1, 1,63, 1, 4,
                    4, 1,14, 1,14, 1, 2, 0, 2, 1,63, 1,63,63, 1, 4,
                    4, 1,14, 1,14, 1, 2, 2, 2, 1,63,63,63, 1, 1, 4,
                    4, 1,14,14,14, 1, 1, 1, 1, 1, 1, 1, 1, 1, 1, 4,
                    4, 0, 1, 2, 0, 1, 2, 0, 1, 2, 1, 1, 1, 1, 1, 4,
                    4, 4, 4, 4, 4, 4, 4, 4, 4, 4, 4, 4, 4, 4, 4, 4           
         ],
   "decoTileVar":[  15,15,15, 4, 4, 4, 4, 4, 4, 4, 4, 4, 4, 4, 4, 4,
                    4, 7, 1, 1, 1, 1, 1, 1, 1, 1, 1, 4, 1, 1, 1, 4,
                    4, 1,63,63,63,63, 1,63,63,63,63, 4, 1, 1, 1, 4,
                    4, 1,63, 8, 1,63, 1,63, 1, 1,63, 5, 1, 1, 1, 4,
                    4, 1,63, 1, 1,63, 1,63, 1, 1,63, 4, 1, 1, 1, 4,
                    4, 1,63,63,63, 8, 1,63,63,63,63, 4, 1, 1, 1, 4,
                    4, 1,63,63, 1, 1, 1,63, 1, 1, 1, 4, 4, 4, 4, 4,
                    4, 1,63, 1,63, 1, 1, 8, 1, 1,63,63,63, 1, 1, 4,
                    4, 1,63, 1, 1,63, 1,63, 1, 1,63, 1,63,63, 1, 4,
                    4, 1, 1, 1, 1, 1, 1, 1, 1, 8,63, 1, 1,63, 1, 4,
                    4, 1,14,14,14, 1, 1, 1, 1, 1,63, 1, 1,63, 1, 4,
                    4, 1,14, 1,14, 1, 1, 0, 1, 1,63, 1,63,63, 1, 4,
                    4, 1,14, 1,14, 1, 1, 1, 1, 1,63,63,63, 1, 1, 4,
                    4, 1,14,14,14, 1, 1, 1, 1, 1, 1, 1, 1, 1, 1, 4,
                    4, 1, 1, 1, 1, 1, 1, 1, 1, 1, 1, 1, 1, 1, 1, 4,
                    4, 4, 4, 4, 4, 4, 4, 4, 4, 4, 4, 4, 4, 4, 4, 4           
         ],
   "customTiles":"false",
   "tiles":"tiles0_x.png",
   "water":"water0.png",
   "entrance":[1,1],
   "multiexit":[[3,3],[5,5],[7,7],[9,9]],
   "obs" : [
      {"kind":"GoldenStatue","x":10,"y":10, "loot":{"kind":"Codex","text":"Это кодекс отобранный у статуи"} },
      {"kind":"Mimic","x":8,"y":8, "level":3, "loot":{"kind":"Codex","text":"Это кодекс отобранный у толстого мимика"} }
   ],
  "items": [

    {"kind":"ScrollOfIdentify","quantity":"99","x":13,"y":10},
    {"kind":"RatHide","x":13,"y":10},
    {"kind":"IronKey", "levelId":"2", "depth":2, "x":13,"y":11},
    {"kind":"WarHammer", "level":"4", "x":13,"y":11, "enchantment":"Horror"},
    {"kind":"LeatherArmor", "level":"5", "x":13,"y":12, "glyph":"Potential"}
  ],
  "objects" : [
    {"kind" : "Sign",   "x" : 12, "y" : 10, "text" : "Yay! it is a custom sign!"},
    {"kind" : "Barrel", "x" : 13, "y" : 10},

    {"kind":"Trap","x":13,"y":9, "uses":10,
      "trapKind":"scriptFile",
      "script":"scripts/traps/Message"},

    {"kind":"Trap","x":9,"y":9, "uses":2000,
      "trapKind":"scriptFile",
      "script":"scripts/traps/Disarm",
      "secret":true,
      "activatedByItem":true
    },

    {"kind":"Trap","x":5,"y":9, "uses":1,
      "trapKind":"scriptFile",
      "script":"scripts/traps/Sandbox"}
    
  ]
}